\BOOKMARK [2][]{Outline0.1}{Primary Discussion}{}% 1
\BOOKMARK [3][]{Outline0.1.1.3}{SALSA}{Outline0.1}% 2
\BOOKMARK [3][]{Outline0.1.2.9}{HI Surveys}{Outline0.1}% 3
\BOOKMARK [2][]{Outline0.2}{Second Section}{}% 4
